<svg xmlns="http://www.w3.org/2000/svg" width="93" height="58" viewBox="0 0 93 58">
  <g id="Group_3" data-name="Group 3" transform="translate(-289 -843)">
    <path id="Vector" d="M.734,58,31.9,57.843l8.307,0h2.752l8.323,0,38.024-.01s8.7-10.8-.593-21.048C79.079,26.149,74.4,34.806,71.435,19.843,63.982-17.822-9.7,4.1,9.625,36.152,16.583,47.693-4.073,41.559.734,58Z" transform="translate(289 843)" fill="#eff9ff"/>
    <g id="chart_1" data-name="chart 1" transform="translate(309 843)">
      <g id="Group">
        <g id="Group-2" data-name="Group">
          <g id="Group-3" data-name="Group">
            <g id="Group-4" data-name="Group">
              <g id="Group-5" data-name="Group">
                <g id="Group-6" data-name="Group">
                  <g id="Group-7" data-name="Group">
                    <path id="Vector-2" data-name="Vector" d="M45.343,45.4V3.4a3.4,3.4,0,0,0-3.4-3.4H3.4A3.4,3.4,0,0,0,0,3.4v42a3.4,3.4,0,0,0,3.4,3.4H41.943A3.4,3.4,0,0,0,45.343,45.4Z" transform="translate(0 0.598)" fill="#9bc4f9"/>
                    <g id="Group-8" data-name="Group">
                      <path id="Vector-3" data-name="Vector" d="M1.521.761A.761.761,0,1,1,.761,0,.761.761,0,0,1,1.521.761Z" transform="translate(5.527 4.207)" fill="#fff"/>
                      <path id="Vector-4" data-name="Vector" d="M1.521.761A.761.761,0,1,1,.761,0,.761.761,0,0,1,1.521.761Z" transform="translate(9.706 4.207)" fill="#fff"/>
                      <path id="Vector-5" data-name="Vector" d="M1.521.761A.761.761,0,1,1,.761,0,.761.761,0,0,1,1.521.761Z" transform="translate(13.884 4.207)" fill="#fff"/>
                    </g>
                    <path id="Vector-6" data-name="Vector" d="M5.487,0H0A3.4,3.4,0,0,1,3.4,3.4v42A3.4,3.4,0,0,1,0,48.8H5.487a3.4,3.4,0,0,0,3.4-3.4V3.4A3.4,3.4,0,0,0,5.487,0Z" transform="translate(41.113 0.598)" fill="#7fb2f9"/>
                    <path id="Vector-7" data-name="Vector" d="M41.822,36.869V.025A1.393,1.393,0,0,0,41.566,0H1.392A1.392,1.392,0,0,0,0,1.392V35.5a1.392,1.392,0,0,0,1.392,1.392H41.566a1.385,1.385,0,0,0,.256-.025Z" transform="translate(3.521 8.987)" fill="#fff"/>
                    <g id="Group-9" data-name="Group">
                      <path id="Vector-8" data-name="Vector" d="M4.064,4.545H0V.656A.656.656,0,0,1,.656,0H3.408a.656.656,0,0,1,.656.656V4.545Z" transform="translate(10.691 35.177)" fill="#e49542"/>
                      <path id="Vector-9" data-name="Vector" d="M4.064,11.493H0V.656A.656.656,0,0,1,.656,0H3.408a.656.656,0,0,1,.656.656V11.493Z" transform="translate(18.876 28.229)" fill="#95d6a4"/>
                      <path id="Vector-10" data-name="Vector" d="M4.064,8.053H0V.656A.656.656,0,0,1,.656,0H3.408a.656.656,0,0,1,.656.656v7.4Z" transform="translate(27.061 31.669)" fill="#efd133"/>
                      <path id="Vector-11" data-name="Vector" d="M4.064,15.494H0V.656A.656.656,0,0,1,.656,0H3.408a.656.656,0,0,1,.656.656V15.494Z" transform="translate(35.246 24.228)" fill="#ac80dd"/>
                    </g>
                    <path id="Vector-12" data-name="Vector" d="M.574,0H0V36.894H.574A1.392,1.392,0,0,0,1.966,35.5V1.392A1.392,1.392,0,0,0,.574,0Z" transform="translate(44.513 8.987)" fill="#eaf2ff"/>
                  </g>
                  <path id="Vector-13" data-name="Vector" d="M11.79,0H.754a.754.754,0,0,0,0,1.509H11.79Z" transform="translate(33.552 4.213)" fill="#eaf2ff"/>
                  <path id="Vector-14" data-name="Vector" d="M1.966,0H0V1.509H1.966A.755.755,0,0,0,1.966,0Z" transform="translate(44.513 4.213)" fill="#bcd6f9"/>
                </g>
              </g>
            </g>
          </g>
          <g id="Group-10" data-name="Group">
            <path id="Vector-15" data-name="Vector" d="M35.448,1.509H.754A.754.754,0,0,1,.754,0H35.448a.754.754,0,0,1,0,1.509Z" transform="translate(6.899 38.967)" fill="#bcd6f9"/>
          </g>
          <path id="Vector-16" data-name="Vector" d="M34.009.472,30.3.006a.755.755,0,0,0-.188,1.5l1.763.221-9.506,6.65a.671.671,0,0,1-.616.08l-6.787-2.5a2.18,2.18,0,0,0-2,.259L.322,15.054a.755.755,0,1,0,.865,1.237L13.831,7.446a.671.671,0,0,1,.616-.08l6.787,2.5a2.179,2.179,0,0,0,2-.259L32.977,2.8l-.232,2.049a.755.755,0,0,0,.665.835.776.776,0,0,0,.086,0,.755.755,0,0,0,.749-.67l.421-3.711a.755.755,0,0,0-.656-.834Z" transform="translate(6.899 14.122)" fill="#e278b1"/>
        </g>
      </g>
    </g>
  </g>
</svg>
