<svg xmlns="http://www.w3.org/2000/svg" width="36" height="36" viewBox="0 0 36 36">
  <g id="Group_5" data-name="Group 5" transform="translate(-90 -305)">
    <circle id="Ellipse_106" data-name="Ellipse 106" cx="18" cy="18" r="18" transform="translate(90 305)" fill="#429ae5"/>
    <g id="book-bookmark_2" data-name="book-bookmark 2" transform="translate(99 314)">
      <g id="Group">
        <path id="Vector" d="M1.5,15.75A.75.75,0,0,1,2.25,15H13.5A1.5,1.5,0,0,0,15,13.5V2.25A2.25,2.25,0,0,0,12.75,0H7.5V6L5.25,4.5,3,6V0H2.25A2.25,2.25,0,0,0,0,2.25v13.5A2.25,2.25,0,0,0,2.25,18h12a.75.75,0,0,0,0-1.5h-12A.75.75,0,0,1,1.5,15.75Z" transform="translate(1.5)" fill="#fff"/>
      </g>
    </g>
  </g>
</svg>
