<svg xmlns="http://www.w3.org/2000/svg" xmlns:xlink="http://www.w3.org/1999/xlink" width="103.998" height="104.001" viewBox="0 0 103.998 104.001">
  <defs>
    <linearGradient id="linear-gradient" x1="0.491" y1="0.477" x2="0.209" y2="0.496" gradientUnits="objectBoundingBox">
      <stop offset="0" stop-color="#444b8c"/>
      <stop offset="1" stop-color="#26264f"/>
    </linearGradient>
    <linearGradient id="linear-gradient-2" x1="1805.02" y1="169.54" x2="719.07" y2="3866.57" xlink:href="#linear-gradient"/>
    <linearGradient id="linear-gradient-3" y1="1.747" x2="0.635" y2="0.191" gradientUnits="objectBoundingBox">
      <stop offset="0" stop-color="#f36f56"/>
      <stop offset="1" stop-color="#ffc444"/>
    </linearGradient>
    <linearGradient id="linear-gradient-4" x1="1.227" x2="0" y2="78.661" gradientUnits="objectBoundingBox">
      <stop offset="0" stop-color="#311944"/>
      <stop offset="1" stop-color="#893976"/>
    </linearGradient>
    <linearGradient id="linear-gradient-5" x1="1.148" y1="8.987" x2="0.479" y2="0.005" gradientUnits="objectBoundingBox">
      <stop offset="0" stop-color="#aa80f9"/>
      <stop offset="1" stop-color="#6165d7"/>
    </linearGradient>
    <linearGradient id="linear-gradient-6" x1="906.53" y1="1347.88" x2="919.4" y2="990.11" xlink:href="#linear-gradient-5"/>
    <linearGradient id="linear-gradient-7" x1="1010.03" y1="449.14" x2="936.32" y2="999.03" xlink:href="#linear-gradient-5"/>
    <linearGradient id="linear-gradient-8" x1="998.6" y1="292.76" x2="902.28" y2="1516.79" xlink:href="#linear-gradient-5"/>
    <linearGradient id="linear-gradient-9" x1="0.895" x2="0.105" y2="1.942" gradientUnits="objectBoundingBox">
      <stop offset="0" stop-color="#ff9085"/>
      <stop offset="1" stop-color="#fb6fbb"/>
    </linearGradient>
    <linearGradient id="linear-gradient-10" x1="1481.29" y1="1473.55" x2="1523.68" y2="1077.35" xlink:href="#linear-gradient-9"/>
    <linearGradient id="linear-gradient-11" x1="121.97" y1="2102.66" x2="1737.83" y2="2102.66" xlink:href="#linear-gradient-9"/>
    <linearGradient id="linear-gradient-12" x1="300.89" y1="2743.28" x2="432.61" y2="2443.69" xlink:href="#linear-gradient-5"/>
    <linearGradient id="linear-gradient-13" y1="0.5" x2="1" y2="0.5" gradientUnits="objectBoundingBox">
      <stop offset="0.49" stop-color="#ebeff2"/>
      <stop offset="1" stop-color="#fff"/>
    </linearGradient>
    <linearGradient id="linear-gradient-14" x1="617.64" y1="2571.95" x2="1758.12" y2="2571.95" xlink:href="#linear-gradient-5"/>
    <linearGradient id="linear-gradient-15" x1="492.1" y1="1935.45" x2="261.18" y2="2713.3" xlink:href="#linear-gradient-9"/>
    <linearGradient id="linear-gradient-16" x1="644.06" y1="2244.19" x2="1738.87" y2="2244.19" xlink:href="#linear-gradient-13"/>
    <linearGradient id="linear-gradient-17" x1="617.64" y1="2247.57" x2="1758.12" y2="2247.57" xlink:href="#linear-gradient-9"/>
    <linearGradient id="linear-gradient-18" x1="287.61" y1="1614.12" x2="1000.5" y2="1614.12" xlink:href="#linear-gradient-13"/>
    <linearGradient id="linear-gradient-19" x1="313.15" y1="1852.33" x2="974.96" y2="1852.33" xlink:href="#linear-gradient-5"/>
    <linearGradient id="linear-gradient-20" x1="633.3" y1="1698.99" x2="788.22" y2="1491.65" xlink:href="#linear-gradient-5"/>
    <linearGradient id="linear-gradient-21" x1="0.416" y1="0.207" x2="0.655" y2="0.651" gradientUnits="objectBoundingBox">
      <stop offset="0" stop-color="#ffc444"/>
      <stop offset="1" stop-color="#f36f56"/>
    </linearGradient>
    <linearGradient id="linear-gradient-22" x1="3861.663" y1="2705.06" x2="3861.663" y2="2599.4" xlink:href="#linear-gradient-21"/>
    <linearGradient id="linear-gradient-23" x1="3538.284" y1="2735.18" x2="3538.284" y2="2607.84" xlink:href="#linear-gradient-21"/>
    <linearGradient id="linear-gradient-24" x1="3492.768" y1="2234.96" x2="3909.378" y2="2234.96" xlink:href="#linear-gradient-4"/>
    <linearGradient id="linear-gradient-25" x1="3479.529" y1="1924.4" x2="3779.679" y2="2428.53" xlink:href="#linear-gradient-4"/>
    <linearGradient id="linear-gradient-26" x1="3597.689" y1="1854.05" x2="3897.84" y2="2358.18" xlink:href="#linear-gradient-4"/>
    <linearGradient id="linear-gradient-27" x1="0.466" y1="0.361" x2="0" gradientUnits="objectBoundingBox">
      <stop offset="0" stop-color="#e38ddd"/>
      <stop offset="1" stop-color="#9571f6"/>
    </linearGradient>
    <linearGradient id="linear-gradient-28" x1="4783.834" y1="1382.89" x2="5105.765" y2="2044.9" xlink:href="#linear-gradient-27"/>
    <linearGradient id="linear-gradient-29" x1="3664.316" y1="1300.06" x2="3725.846" y2="1397.85" xlink:href="#linear-gradient-27"/>
    <linearGradient id="linear-gradient-30" x1="4977.875" y1="994.79" x2="5328.436" y2="1551.98" xlink:href="#linear-gradient"/>
    <linearGradient id="linear-gradient-31" x1="4744.314" y1="1398.33" x2="5060.944" y2="2049.43" xlink:href="#linear-gradient-27"/>
    <linearGradient id="linear-gradient-32" x1="4737.226" y1="1405.5" x2="5059.155" y2="2067.51" xlink:href="#linear-gradient-5"/>
  </defs>
  <g id="TT-asset_1" data-name="TT-asset 1" transform="translate(0 0.001)">
    <g id="Group">
      <g id="Layer_2" data-name="Layer 2">
        <g id="Illustration">
          <path id="Vector" d="M10.1,19.275C11.682,17.1,25.258-.843,47.262.031c1.1.043,22.56,1.177,30.475,15.246,5.855,10.407-.344,19.641,6.8,26.732,6.224,6.178,13.873,2.089,17.7,7.085,5.826,7.611-3.452,28.165-17.708,39.628-14.718,11.836-42.879,20.52-64.766,4.73C-4.815,75.72-4.566,39.344,10.1,19.275Z" transform="translate(0 -0.001)" fill="#dfeef6"/>
          <path id="Vector-2" data-name="Vector" d="M47.882,3.156l9.937,82.6a2.178,2.178,0,0,1-1.9,2.467L14.527,92.768c-2.536.158-3.924-1.138-4.081-2.455L.013,2.5C-.143,1.184,1.1,0,3.648,0L45.417.88A2.634,2.634,0,0,1,47.882,3.156Z" transform="translate(24.268 3.161)" fill="url(#linear-gradient)"/>
          <path id="Vector-3" data-name="Vector" d="M48.071,3.021l9.992,83.014a2.187,2.187,0,0,1-1.907,2.48l-42.911,4.27a2.509,2.509,0,0,1-2.736-2.163L.016,2.352A2.082,2.082,0,0,1,2.208,0L45.6.732A2.645,2.645,0,0,1,48.071,3.021Z" transform="translate(25.942 3.155)" fill="url(#linear-gradient-2)"/>
          <path id="Vector-4" data-name="Vector" d="M45.137,2.559,54.4,79.528a2.039,2.039,0,0,1-1.786,2.313L12.255,85.764a2.34,2.34,0,0,1-2.543-2.019L.015,2.2A1.951,1.951,0,0,1,2.05,0L42.822.432A2.451,2.451,0,0,1,45.137,2.559Z" transform="translate(28.062 8.196)" fill="url(#linear-gradient-3)"/>
          <path id="Vector-5" data-name="Vector" d="M1.617.812a.686.686,0,0,1-.709.79A.947.947,0,0,1,.006.79.686.686,0,0,1,.716,0,.945.945,0,0,1,1.617.812Z" transform="translate(49.939 5.307)" fill="url(#linear-gradient-4)"/>
          <g id="Group-2" data-name="Group" opacity="0.5" style="mix-blend-mode: soft-light;isolation: isolate">
            <path id="Vector-6" data-name="Vector" d="M40.278,59.264c-8.262-15.275-20.6-19.848-24.321-35.59C13.949,15.165,15.318,7.02,17.623.26L2.208,0A2.082,2.082,0,0,0,.016,2.352L10.507,90.621a2.509,2.509,0,0,0,2.736,2.163l33.733-3.358C47.226,75.738,43.961,66.073,40.278,59.264Z" transform="translate(25.943 3.157)" fill="#fff" opacity="0.5" style="mix-blend-mode: soft-light;isolation: isolate"/>
          </g>
          <path id="Vector-7" data-name="Vector" d="M26.425,0l1.849,13.38a4.2,4.2,0,0,1-1.908,3.877A8.97,8.97,0,0,1,25.255,18a19.233,19.233,0,0,1-9.26,2.06A22.877,22.877,0,0,1,6.161,18C3.719,16.8,2.1,15.173,1.849,13.38L0,0Z" transform="translate(38.622 28.549)" fill="url(#linear-gradient-5)"/>
          <path id="Vector-8" data-name="Vector" d="M25.485,10.819a9.065,9.065,0,0,1-1.114.743,19.251,19.251,0,0,1-9.263,2.06,22.881,22.881,0,0,1-9.834-2.06C2.831,10.363,1.208,8.736.96,6.943L0,0C2,.811,4.818,2.4,5.66,4.965c1.317,4.016,7.082,5.376,12.5,4.469A12.245,12.245,0,0,1,25.485,10.819Z" transform="translate(39.514 34.986)" opacity="0.3" fill="url(#linear-gradient-6)" style="mix-blend-mode: multiply;isolation: isolate"/>
          <path id="Vector-9" data-name="Vector" d="M40.412,9.692,19.24,0,.747,9.692H0l.044.316,22.03,10.081L41.316,10.007l-.043-.316Z" transform="translate(31.749 20.102)" fill="url(#linear-gradient-7)"/>
          <path id="Vector-10" data-name="Vector" d="M19.234,0,0,10.081,22.021,20.162,41.255,10.081Z" transform="translate(31.69 19.64)" fill="url(#linear-gradient-8)"/>
          <path id="Vector-11" data-name="Vector" d="M22.757,14.546a.369.369,0,0,1-.352-.271L20.579,1.06A.592.592,0,0,0,20.034.5H.311A.3.3,0,0,1,0,.249.218.218,0,0,1,.242,0H19.965a1.271,1.271,0,0,1,1.243,1.06l1.827,13.214A.265.265,0,0,1,22.757,14.546Z" transform="translate(51.999 29.172)" fill="url(#linear-gradient-9)"/>
          <path id="Vector-12" data-name="Vector" d="M1.361.656l-.3-.409A.586.586,0,0,0,.589,0,.419.419,0,0,0,.194.26L.037.687a.666.666,0,0,0-.027.334l.5,3.6c.01.077.358.14.774.14s.747-.062.736-.14l-.5-3.607A.831.831,0,0,0,1.361.656Z" transform="translate(73.774 40.659)" fill="url(#linear-gradient-10)"/>
          <path id="Vector-13" data-name="Vector" d="M1.348,10.828.01.883c-.086-.64.374-1.07.854-.8L9.4,4.829a1,1,0,0,1,.2,1.533l-7.2,5.2C2,11.86,1.433,11.464,1.348,10.828Z" transform="translate(49.172 23.889)" fill="#fff"/>
          <path id="Vector-14" data-name="Vector" d="M0,1.213,27.888,0,60.019,1.126l-31.7,6.928Z" transform="translate(4.53 74.071)" fill="url(#linear-gradient-11)"/>
          <path id="Vector-15" data-name="Vector" d="M26.632,14.474,4.043,8.394A5.572,5.572,0,0,1,0,3.343V3.317A3.251,3.251,0,0,1,4.043.066L28.27,4.032Z" transform="translate(0.368 87.683)" fill="url(#linear-gradient-12)"/>
          <path id="Vector-16" data-name="Vector" d="M40.665,8.262l-36.5,4.076A3.6,3.6,0,0,1,0,8.773V7.263A4.53,4.53,0,0,1,4.166,2.9L40.665,0C39.05,3,38.677,5.818,40.665,8.262Z" transform="translate(23.923 89.329)" fill="url(#linear-gradient-13)"/>
          <path id="Vector-17" data-name="Vector" d="M41.965,9.108,5.453,13.248A4.718,4.718,0,0,1,0,8.586V8.554A5.932,5.932,0,0,1,5.453,2.849L41.965,0a.383.383,0,0,1,.4.409.464.464,0,0,1-.4.472L5.453,3.853a4.782,4.782,0,0,0-4.38,4.6v.032a3.8,3.8,0,0,0,4.38,3.759L41.965,8.227a.369.369,0,0,1,.4.4A.484.484,0,0,1,41.965,9.108Z" transform="translate(22.941 88.888)" fill="url(#linear-gradient-14)"/>
          <path id="Vector-18" data-name="Vector" d="M27.581,16.5,4.043,12.507C1.768,12.1,0,9.123,0,5.841V5.8C0,2.522,1.768-.082,4.043,0l24.97.929Z" transform="translate(0.368 75.244)" fill="url(#linear-gradient-15)"/>
          <path id="Vector-19" data-name="Vector" d="M40.665,12.406l-34.454,2.6A5.626,5.626,0,0,1,0,9.425V7.159A6.358,6.358,0,0,1,6.211.939L40.665,0C39.045,4.5,38.683,8.722,40.665,12.406Z" transform="translate(23.923 75.845)" fill="url(#linear-gradient-16)"/>
          <path id="Vector-20" data-name="Vector" d="M41.965,13.675,5.453,16.522C2.471,16.755,0,13.391,0,9.019V8.971C0,4.6,2.471.982,5.453.908L41.965,0c.22-.005.4.286.4.65s-.178.665-.4.672L5.453,2.417c-2.4.072-4.38,2.988-4.38,6.5v.048c0,3.511,1.981,6.223,4.38,6.049l36.512-2.66c.22-.016.4.266.4.631S42.185,13.658,41.965,13.675Z" transform="translate(22.941 75.214)" fill="url(#linear-gradient-17)"/>
          <path id="Vector-21" data-name="Vector" d="M5.88,10.552.848,9.673A14.209,14.209,0,0,1,.848,0L5.88.357A18.5,18.5,0,0,0,5.88,10.552Z" transform="translate(14.77 77.898)" fill="#fff" opacity="0.5" style="mix-blend-mode: soft-light;isolation: isolate"/>
          <path id="Vector-22" data-name="Vector" d="M16.1,8.8V0H10.384V8.8A2.034,2.034,0,0,1,9.04,10.719C3.787,12.606,0,17.791,0,22.568c0,5.98,5.928,9.057,13.24,9.057s13.24-3.077,13.24-9.057c0-4.778-3.789-9.963-9.04-11.852A2.034,2.034,0,0,1,16.1,8.8Z" transform="translate(10.683 44.141)" fill="url(#linear-gradient-18)"/>
          <path id="Vector-23" data-name="Vector" d="M1.318,0A6.56,6.56,0,0,0,0,3.872c0,4.743,5.5,8.589,12.291,8.589S24.584,8.615,24.584,3.872A6.562,6.562,0,0,0,23.266,0Z" transform="translate(11.632 62.571)" fill="url(#linear-gradient-19)"/>
          <path id="Vector-24" data-name="Vector" d="M21.936.952c0,.526-4.911.952-10.968.952S0,1.478,0,.952,4.911,0,10.968,0,21.936.426,21.936.952Z" transform="translate(12.954 61.618)" fill="url(#linear-gradient-20)"/>
          <g id="Group-3" data-name="Group" opacity="0.62">
            <path id="Vector-25" data-name="Vector" d="M14.386,27.69c-1.478-.005-4.532-.015-6.879-2.293-1.421-1.379-3.192-4.178-2.336-6.49,1.3-3.507,7.611-3.1,8.048-6.014.2-1.323-1.084-1.558-1.384-3.851C11.5,6.514,12.892,5.511,12.874,3.2A6.507,6.507,0,0,0,11.945,0H10.384V8.8A2.034,2.034,0,0,1,9.04,10.721C3.787,12.608,0,17.792,0,22.569c0,5.98,5.928,9.057,13.24,9.057s13.24-3.077,13.24-9.057a9.413,9.413,0,0,0-.058-1.029C24.37,23.834,20.083,27.709,14.386,27.69Z" transform="translate(10.683 44.139)" fill="#fff" opacity="0.62"/>
          </g>
          <path id="Vector-26" data-name="Vector" d="M6.144,1.819H.909A.909.909,0,0,1,0,.909H0A.909.909,0,0,1,.909,0H6.144a.909.909,0,0,1,.909.909h0a.909.909,0,0,1-.909.91Z" transform="translate(20.396 43.403)" fill="#fff"/>
          <path id="Vector-27" data-name="Vector" d="M1.252,3.705A2.769,2.769,0,0,0,1.7,2.286,2.711,2.711,0,0,0,.629,0C.558.034.648.42.7.591c.1.356.217.39.208.553-.019.337-.505.35-.761.8a1.2,1.2,0,0,0,0,1.142A1.36,1.36,0,0,0,1.252,3.705Z" transform="translate(62.423 38.554)" fill="#fff"/>
          <path id="Vector-28" data-name="Vector" d="M.375,2.817,0,1.526,1.566.365,2.543,0,1.965,1.807Z" transform="translate(84.155 68.032)" fill="url(#linear-gradient-21)"/>
          <path id="Vector-29" data-name="Vector" d="M0,.217A7.889,7.889,0,0,1,.631,3.328a9.6,9.6,0,0,0,1.515-.135A10.438,10.438,0,0,1,1.7,1.723,14.426,14.426,0,0,1,1.615,0Z" transform="translate(82.591 96.641)" fill="url(#linear-gradient-22)"/>
          <path id="Vector-30" data-name="Vector" d="M2.741.011a.677.677,0,0,1,.162.4.643.643,0,0,1-.049.266c-.146.384-.376.435-.623.843-.151.249-.123.324-.26.437a.905.905,0,0,1-.594.159A10.6,10.6,0,0,1,0,2.034Q.461,1.439.982.828,1.212.56,1.439.306L2.343,0Z" transform="translate(70.403 101.888)" fill="#26264f"/>
          <path id="Vector-31" data-name="Vector" d="M1.716,0S1.2,2.7,1.857,3.452c.561.755-.27.217-.27.217l-.992.866L0,5.563A17.018,17.018,0,0,0,.4,1.876C.256.828.183.122.183.122Z" transform="translate(70.677 97.509)" fill="url(#linear-gradient-23)"/>
          <path id="Vector-32" data-name="Vector" d="M1.388.531S0,1.773,0,6.889.657,23.112.657,23.112L1.71,31.064a7.018,7.018,0,0,0,1.82-.181c.658-3,1.729-8.064,1.218-12.3C4.529,13.975,6.575,8.2,6.575,8.2s1.754,5.846,3,8.769,3.607,12.08,3.826,12.738a3.6,3.6,0,0,0,2.074-.253s-.932-9.854-1.809-13.581S12.859,3.162,11.4.6C8.112-.711,1.388.531,1.388.531Z" transform="translate(69.055 67.48)" fill="url(#linear-gradient-24)"/>
          <path id="Vector-33" data-name="Vector" d="M1.388.531S0,1.773,0,6.889.657,23.112.657,23.112L1.71,31.064a7.018,7.018,0,0,0,1.82-.181c.658-3,1.729-8.064,1.218-12.3C4.529,13.975,6.575,8.2,6.575,8.2s1.754,5.846,3,8.769,3.608,12.08,3.826,12.738a3.6,3.6,0,0,0,2.074-.253s-.932-9.854-1.809-13.581S12.859,3.162,11.4.6C8.112-.711,1.388.531,1.388.531Z" transform="translate(69.055 67.48)" fill="url(#linear-gradient-25)"/>
          <path id="Vector-34" data-name="Vector" d="M8.6,9.905a9.22,9.22,0,0,0,3.464,6.277c1.732,1.3.433,4.113,1.082,6.277.216.649.866,1.3,1.082,1.948.805,1.611.053,3.582.418,5.288a2.318,2.318,0,0,0,.826-.237s-.932-9.854-1.809-13.581S12.862,3.162,11.4.6C8.111-.711,1.388.53,1.388.53S0,1.772,0,6.888c0,.415,0,.87.012,1.355a5.263,5.263,0,0,0,6.208.145.859.859,0,0,1,.347-.157l.01-.027.007.025C7.412,8.08,8.414,9.154,8.6,9.905Z" transform="translate(69.055 67.478)" opacity="0.25" fill="url(#linear-gradient-26)" style="mix-blend-mode: multiply;isolation: isolate"/>
          <path id="Vector-35" data-name="Vector" d="M.2,0S-.017,0,0,.276-.1,1.5.991,1.545a3.351,3.351,0,0,0,1.289-.077A8.875,8.875,0,0,0,1.994.561L1.647.115.713.017Z" transform="translate(82.8 100.787)" fill="#26264f"/>
          <path id="Vector-36" data-name="Vector" d="M2.567,2.55a3.447,3.447,0,0,0-.28-.88c-.192-.431-.035-.594-.218-.985a1.152,1.152,0,0,0-.26-.392A1.123,1.123,0,0,0,1.043,0,.777.777,0,0,0,.682.085.833.833,0,0,0,.357.428,3.858,3.858,0,0,0,.1,1.2a1.876,1.876,0,0,0-.068.264A1.845,1.845,0,0,0,0,1.7a5.063,5.063,0,0,1,1.611.214.907.907,0,0,1,.347.738c0,.285.143.418.285.409A.464.464,0,0,0,2.567,2.55Z" transform="translate(82.837 99.189)" fill="#444b8c"/>
          <path id="Vector-37" data-name="Vector" d="M1.973,0c.244,0,.424.2.557.669s.785.884.027.784S1.25,2.427.979,2.824s-1,.75-.979.361.338-.569.429-.966S1.416-.01,1.973,0Z" transform="translate(70.28 100.583)" fill="#444b8c"/>
          <path id="Vector-38" data-name="Vector" d="M9.421,17.616a8.228,8.228,0,0,0-.512-6.778,8.077,8.077,0,0,0-4.42-3.36C2.261,6.82,1.142,7.664.438,6.888-.756,5.566.6,1.066,3.213.165,6.161-.851,9.7,3.056,11.133,5.623a11.834,11.834,0,0,1,1.309,7.4,11.561,11.561,0,0,1-1.427,4Z" transform="translate(75.684 51.012)" fill="url(#linear-gradient-27)"/>
          <path id="Vector-39" data-name="Vector" d="M9.8.038C7.163-.067,5.133-.025,3.986,1.12,2.775,2.331,4,3.7,3.736,6.863,3.333,11.71.245,12.894.012,17.812a12.558,12.558,0,0,0,.42,3.826,13.21,13.21,0,0,0,3.425,3.032c2.383,1.449,3.765,1.2,7.187,2.133,5.6,1.532,6.1,3.356,8.871,2.892,2.805-.47,5.266-2.83,4.969-4.127-.178-.776-1.309-.557-2.611-1.741-1.678-1.526-1.031-2.983-2.306-4.622-1.833-2.355-4.385-.916-5.947-2.957-1.58-2.065-.953-6.134.378-8.352.87-1.449,1.242-3.146,1.982-4.666a1.059,1.059,0,0,0,.1-.592c-.12-.989-1.769-1.526-3.018-1.92A15,15,0,0,0,9.8.038Z" transform="translate(67.609 50.503)" fill="url(#linear-gradient-28)"/>
          <path id="Vector-40" data-name="Vector" d="M0,.16.52,0S.656.7,2.325.79A2.5,2.5,0,0,0,3.851.27l.355.26a2.733,2.733,0,0,1-2.016.947A2.484,2.484,0,0,1,0,.16Z" transform="translate(75.187 50.273)" fill="url(#linear-gradient-29)"/>
          <path id="Vector-41" data-name="Vector" d="M.562,1.938A2.236,2.236,0,0,1,1.405.564c.557-.443.671-.488.862-.524L2.528,0h.029a2.6,2.6,0,0,1,.7.247c.267.186.07,1.515-.738,3.165l-.1.419c.706.124.878.251.884.352.012.22-.759.5-1.473.52-.9.023-1.847-.363-1.829-.65.007-.116.176-.26.827-.4l.3-.429A1.961,1.961,0,0,1,.562,1.938Z" transform="translate(75.682 46.356)" fill="#fff"/>
          <path id="Vector-42" data-name="Vector" d="M.416.031C.62-.091.774.171.679.4A.452.452,0,0,1,.066.634C-.129.5.143.195.416.031Z" transform="translate(76.935 47.973)" fill="#fff"/>
          <path id="Vector-43" data-name="Vector" d="M16.965,1.637c-1.477-1.118-4.439-.864-6.3-.053C9.187,2.224,8.94,3,7.569,3.069A4.889,4.889,0,0,1,4.035,1.852c-.108-.118-.544-.615-1.2-1.241A1.8,1.8,0,0,0,1.819.017a.992.992,0,0,0-.736.138.649.649,0,0,0-.191.66c.037.124.082.137.074.218-.018.228-.511.327-.483.442.02.082.276.052.321.155s-.234.21-.355.493a1.108,1.108,0,0,0-.42.871A3.248,3.248,0,0,0,.172,4.51c.8,2.163,1.193,3.244,2.337,3.9a6.868,6.868,0,0,0,3.77.618c1.653-.061,1.935-.463,3.367-.616,2.984-.319,4,1.189,5.563.739C17.7,8.433,19.3,3.4,16.965,1.637Z" transform="translate(77.365 46.393)" fill="url(#linear-gradient-30)"/>
          <path id="Vector-44" data-name="Vector" d="M2.163.124A8,8,0,0,0,3.8,5.923,8,8,0,0,0,8.638,8.647c2.3.348,3.291-.643,4.094.032,1.363,1.145.639,5.789-1.829,7.039-2.782,1.411-6.821-1.977-8.592-4.323A11.832,11.832,0,0,1,0,4.241,11.551,11.551,0,0,1,.87.087,2.053,2.053,0,0,1,2.163.124Z" transform="translate(61.831 41.951)" fill="url(#linear-gradient-31)"/>
          <path id="Vector-45" data-name="Vector" d="M20,15.866c-.673-.69.068-2.08-.926-3.116-.923-.96-1.969-.186-3.454-1.011-1.905-1.06-1.38-3-3.2-4.042-1.309-.75-1.924.056-3.958-.337a8.231,8.231,0,0,1-5.725-4.3A7.379,7.379,0,0,1,2,0,11.937,11.937,0,0,0,.012,5.836a12.558,12.558,0,0,0,.42,3.826,13.21,13.21,0,0,0,3.425,3.032c2.383,1.449,3.765,1.2,7.187,2.133,5.6,1.532,6.1,3.356,8.871,2.892a7.523,7.523,0,0,0,4.322-2.446C21.65,16.424,20.487,16.367,20,15.866Z" transform="translate(67.609 62.479)" opacity="0.3" fill="url(#linear-gradient-32)" style="mix-blend-mode: multiply;isolation: isolate"/>
        </g>
      </g>
    </g>
  </g>
</svg>
