<svg width="16" height="16" viewBox="0 0 16 16" fill="none" xmlns="http://www.w3.org/2000/svg">
<path d="M11.6094 0.390626C11.3593 0.140665 11.0203 0.000244141 10.6667 0.000244141C10.3132 0.000244141 9.97408 0.140665 9.72404 0.390626L3.05737 7.05729C2.80741 7.30733 2.66699 7.64641 2.66699 7.99996C2.66699 8.35351 2.80741 8.69259 3.05737 8.94263L9.72404 15.6093C9.97551 15.8522 10.3123 15.9866 10.6619 15.9835C11.0115 15.9805 11.3459 15.8403 11.5931 15.5931C11.8403 15.3458 11.9806 15.0114 11.9836 14.6618C11.9866 14.3122 11.8523 13.9754 11.6094 13.724L5.88537 7.99996L11.6094 2.27596C11.8593 2.02592 11.9998 1.68684 11.9998 1.33329C11.9998 0.979741 11.8593 0.640663 11.6094 0.390626Z" fill="white"/>
</svg>
