<svg width="512" height="512" viewBox="0 0 512 512" fill="none" xmlns="http://www.w3.org/2000/svg">
<path d="M0 0V233.739H233.739V0H0ZM200.348 200.348H33.391V33.391H200.348V200.348V200.348Z" fill="black"/>
<path d="M166.957 66.783H66.783V166.957H166.957V66.783Z" fill="black"/>
<path d="M278.261 0V233.739H512V0H278.261ZM478.609 200.348H311.652V33.391H478.609V200.348Z" fill="black"/>
<path d="M445.217 66.783H345.043V166.957H445.217V66.783Z" fill="black"/>
<path d="M0 278.261V512H233.739V278.261H0ZM200.348 478.609H33.391V311.652H200.348V478.609V478.609Z" fill="black"/>
<path d="M166.957 345.043H66.783V445.217H166.957V345.043Z" fill="black"/>
<path d="M345.043 311.652V278.261H278.261V512H345.043V478.609H311.652V411.826H345.043V378.435H311.652V311.652H345.043Z" fill="black"/>
<path d="M512 278.261H478.609V311.652H512V278.261Z" fill="black"/>
<path d="M478.609 356.174V478.609H445.217V512H512V356.174H478.609Z" fill="black"/>
<path d="M445.218 278.261H378.435V311.652H445.218V278.261Z" fill="black"/>
<path d="M445.217 378.435V345.043H378.435V445.217H445.217V411.826H411.826V378.435H445.217Z" fill="black"/>
<path d="M411.826 478.609H378.435V512H411.826V478.609Z" fill="black"/>
</svg>
